{
    "name": "/",
    "type": "directory",
    "contents": [
        {
            "name": "secrets",
            "type": "directory",
            "contents": [
                {
                    "name": "password.txt",
                    "type": "file",
                    "file_contents": "mY5ecretpa55word",
                    "owner": "root"
                },
                {
                    "name": "notes.txt",
                    "type": "file",
                    "file_contents": "I need to do the dishes",
                    "owner": "u053c"
                }
            ]
        },
        {
            "name": "junk",
            "type": "directory",
            "contents": []
        }

    ]
}